…
Even though I’ve been using the tidyverse for a couple of years, there’s always a couple new applications of tidyverse verbs.

This one, in retrospect, is pretty simple. I had a one to many table that I wanted to collapse, tidy-style. Let’s look at the diamonds dataset:

diamonds %>% select(color, cut)

## # A tibble: 53,940 x 2
##    color cut      
##    <ord> <ord>    
##  1 E     Ideal    
##  2 E     Premium  
##  3 E     Good     
##  4 I     Premium  
##  5 J     Good     
##  6 J     Very Good
##  7 I     Very Good
##  8 H     Very Good
##  9 E     Fair     
## 10 H     Very Good
## # ... with 53,930 more rows
…
